{
	"extends": "tslint:recommended",
	"linterOptions": {
		"exclude": [
			"src/*.mock.ts"
		]
	},
	"rules": {
		"indent": [
			true,
			"tabs",
			2
		],
		"only-arrow-functions": false,
		"object-literal-sort-keys": false,
		"arrow-parens": [
			false
		],
		"member-access": [
			false
		],
		"ordered-imports": false,
		"no-console": [
			false
		],
		"triple-equals": false,
		"max-line-length": [
			true,
			{
				"limit": 180,
				"ignore-pattern": "^import [^,]+ from |^export | implements"
			}
		],
		"jsdoc-format": [
			false,
			"check-multiline-start"
		],
		"variable-name": false,
		"radix": false,
		"one-line": [
			false,
			"check-catch",
			"check-finally",
			"check-else"
		],
		"no-unused-expression": false,
		"forin": false,
		"max-classes-per-file": false,
		"no-empty": [
			true,
			"allow-empty-catch",
			"allow-empty-functions"
		],
		"no-var-require": false,
		"no-require-imports": false,
		"adjacent-overload-signatures": false,
		"quotemark": [
			true,
			"single"
		],
		"no-string-literal": false
	},
	"rulesDirectory": ""
}